<svg width="25" height="24" viewBox="0 0 25 24" fill="none" xmlns="http://www.w3.org/2000/svg">
<path d="M17.7134 14.7211H16.6428L16.2633 14.3636C17.5915 12.8542 18.3911 10.8945 18.3911 8.76276C18.3911 4.00932 14.4472 0.15625 9.58177 0.15625C4.71632 0.15625 0.772461 4.00932 0.772461 8.76276C0.772461 13.5162 4.71632 17.3693 9.58177 17.3693C11.7638 17.3693 13.7696 16.5881 15.3146 15.2905L15.6805 15.6612V16.7072L22.4569 23.3144L24.4763 21.3415L17.7134 14.7211ZM9.58177 14.7211C6.20713 14.7211 3.48302 12.0597 3.48302 8.76276C3.48302 5.46581 6.20713 2.80441 9.58177 2.80441C12.9564 2.80441 15.6805 5.46581 15.6805 8.76276C15.6805 12.0597 12.9564 14.7211 9.58177 14.7211Z" fill="#333333"/>
</svg>
