<svg width="23" height="60" viewBox="0 0 23 60" fill="none" xmlns="http://www.w3.org/2000/svg">
<path d="M22.3801 17.7587V9.64502V0.907227H0.441486V9.64502V17.7587V59.5753H22.3801V17.7587Z" fill="black"/>
</svg>
